-----------Exception Details on  04-02-2020 17:03:36-----------------
-------------------------------------------------------------------------------------



Log Written Date: 04-02-2020 17:03:36

Error Line No : ine 272

Error Message: IndexOutOfRangeException

Exception Type: System.IndexOutOfRangeException

Error Location : Index was outside the bounds of the array.

 Error Page Url: http://localhost:2423/Item/Create

User Host IP: 


--------------------------------*End*------------------------------------------



