-----------Exception Details on  06-06-2018 06:18:25 PM-----------------
-------------------------------------------------------------------------------------



Log Written Date: 06-06-2018 06:18:25 PM

Error Line No : ine 364

Error Message: InvalidOperationException

Exception Type: System.InvalidOperationException

Error Location : Nullable object must have a value.

 Error Page Url: http://localhost:2423/CustomerEnquiry/Edit/7

User Host IP: 


--------------------------------*End*------------------------------------------



-----------Exception Details on  06-06-2018 06:24:27 PM-----------------
-------------------------------------------------------------------------------------



Log Written Date: 06-06-2018 06:24:27 PM

Error Line No : ine 364

Error Message: InvalidOperationException

Exception Type: System.InvalidOperationException

Error Location : Nullable object must have a value.

 Error Page Url: http://localhost:2423/CustomerEnquiry/Edit/7

User Host IP: 


--------------------------------*End*------------------------------------------



