-----------Exception Details on  10-03-2020 20:00:49-----------------
-------------------------------------------------------------------------------------



Log Written Date: 10-03-2020 20:00:49

Error Line No : line 54

Error Message: MetadataException

Exception Type: System.Data.Entity.Core.MetadataException

Error Location : Unable to load the specified metadata resource.

 Error Page Url: http://localhost:2423/

User Host IP: 


--------------------------------*End*------------------------------------------



-----------Exception Details on  10-03-2020 20:00:54-----------------
-------------------------------------------------------------------------------------



Log Written Date: 10-03-2020 20:00:54

Error Line No : line 54

Error Message: MetadataException

Exception Type: System.Data.Entity.Core.MetadataException

Error Location : Unable to load the specified metadata resource.

 Error Page Url: http://localhost:2423/

User Host IP: 


--------------------------------*End*------------------------------------------



-----------Exception Details on  10-03-2020 20:01:05-----------------
-------------------------------------------------------------------------------------



Log Written Date: 10-03-2020 20:01:05

Error Line No : line 54

Error Message: MetadataException

Exception Type: System.Data.Entity.Core.MetadataException

Error Location : Unable to load the specified metadata resource.

 Error Page Url: http://localhost:2423/

User Host IP: 


--------------------------------*End*------------------------------------------



