-----------Exception Details on  15-02-2020 16:03:22-----------------
-------------------------------------------------------------------------------------



Log Written Date: 15-02-2020 16:03:22

Error Line No : ine 400

Error Message: InvalidOperationException

Exception Type: System.InvalidOperationException

Error Location : Collection was modified; enumeration operation may not execute.

 Error Page Url: http://localhost:2423/CustomerEnquiry/Create

User Host IP: 


--------------------------------*End*------------------------------------------



-----------Exception Details on  15-02-2020 16:12:56-----------------
-------------------------------------------------------------------------------------



Log Written Date: 15-02-2020 16:12:56

Error Line No : ine 400

Error Message: InvalidOperationException

Exception Type: System.InvalidOperationException

Error Location : Collection was modified; enumeration operation may not execute.

 Error Page Url: http://localhost:2423/CustomerEnquiry/Create

User Host IP: 


--------------------------------*End*------------------------------------------



-----------Exception Details on  15-02-2020 16:19:36-----------------
-------------------------------------------------------------------------------------



Log Written Date: 15-02-2020 16:19:36

Error Line No : ges_id)

Error Message: NullReferenceException

Exception Type: System.NullReferenceException

Error Location : Object reference not set to an instance of an object.

 Error Page Url: http://localhost:2423/CustomerEnquiry/Create

User Host IP: 


--------------------------------*End*------------------------------------------



-----------Exception Details on  15-02-2020 17:01:44-----------------
-------------------------------------------------------------------------------------



Log Written Date: 15-02-2020 17:01:44

Error Line No : ine 539

Error Message: NullReferenceException

Exception Type: System.NullReferenceException

Error Location : Object reference not set to an instance of an object.

 Error Page Url: http://localhost:2423/CustomerEnquiry/Edit/12

User Host IP: 


--------------------------------*End*------------------------------------------



-----------Exception Details on  15-02-2020 17:01:57-----------------
-------------------------------------------------------------------------------------



Log Written Date: 15-02-2020 17:01:57

Error Line No : ine 539

Error Message: NullReferenceException

Exception Type: System.NullReferenceException

Error Location : Object reference not set to an instance of an object.

 Error Page Url: http://localhost:2423/CustomerEnquiry/Edit/12

User Host IP: 


--------------------------------*End*------------------------------------------



-----------Exception Details on  15-02-2020 17:09:25-----------------
-------------------------------------------------------------------------------------



Log Written Date: 15-02-2020 17:09:25

Error Line No : ine 539

Error Message: NullReferenceException

Exception Type: System.NullReferenceException

Error Location : Object reference not set to an instance of an object.

 Error Page Url: http://localhost:2423/CustomerEnquiry/Edit/12

User Host IP: 


--------------------------------*End*------------------------------------------



-----------Exception Details on  15-02-2020 17:10:15-----------------
-------------------------------------------------------------------------------------



Log Written Date: 15-02-2020 17:10:15

Error Line No : ine 539

Error Message: NullReferenceException

Exception Type: System.NullReferenceException

Error Location : Object reference not set to an instance of an object.

 Error Page Url: http://localhost:2423/CustomerEnquiry/Edit/12

User Host IP: 


--------------------------------*End*------------------------------------------



-----------Exception Details on  15-02-2020 17:10:42-----------------
-------------------------------------------------------------------------------------



Log Written Date: 15-02-2020 17:10:42

Error Line No : ine 539

Error Message: NullReferenceException

Exception Type: System.NullReferenceException

Error Location : Object reference not set to an instance of an object.

 Error Page Url: http://localhost:2423/CustomerEnquiry/Edit/12

User Host IP: 


--------------------------------*End*------------------------------------------



-----------Exception Details on  15-02-2020 17:36:10-----------------
-------------------------------------------------------------------------------------



Log Written Date: 15-02-2020 17:36:10

Error Line No : ine 539

Error Message: NullReferenceException

Exception Type: System.NullReferenceException

Error Location : Object reference not set to an instance of an object.

 Error Page Url: http://localhost:2423/CustomerEnquiry/Edit/12

User Host IP: 


--------------------------------*End*------------------------------------------



-----------Exception Details on  15-02-2020 17:37:08-----------------
-------------------------------------------------------------------------------------



Log Written Date: 15-02-2020 17:37:08

Error Line No : ine 539

Error Message: NullReferenceException

Exception Type: System.NullReferenceException

Error Location : Object reference not set to an instance of an object.

 Error Page Url: http://localhost:2423/CustomerEnquiry/Edit/12

User Host IP: 


--------------------------------*End*------------------------------------------



-----------Exception Details on  15-02-2020 17:38:25-----------------
-------------------------------------------------------------------------------------



Log Written Date: 15-02-2020 17:38:25

Error Line No : ine 539

Error Message: NullReferenceException

Exception Type: System.NullReferenceException

Error Location : Object reference not set to an instance of an object.

 Error Page Url: http://localhost:2423/CustomerEnquiry/Edit/12

User Host IP: 


--------------------------------*End*------------------------------------------



-----------Exception Details on  15-02-2020 17:39:55-----------------
-------------------------------------------------------------------------------------



Log Written Date: 15-02-2020 17:39:55

Error Line No : ine 539

Error Message: NullReferenceException

Exception Type: System.NullReferenceException

Error Location : Object reference not set to an instance of an object.

 Error Page Url: http://localhost:2423/CustomerEnquiry/Edit/12

User Host IP: 


--------------------------------*End*------------------------------------------



