-----------Exception Details on  19-01-2019 18:29:17-----------------
-------------------------------------------------------------------------------------



Log Written Date: 19-01-2019 18:29:17

Error Line No : line 54

Error Message: EntityException

Exception Type: System.Data.Entity.Core.EntityException

Error Location : The underlying provider failed on Open.

 Error Page Url: http://localhost:2423/

User Host IP: 


--------------------------------*End*------------------------------------------



-----------Exception Details on  19-01-2019 18:43:25-----------------
-------------------------------------------------------------------------------------



Log Written Date: 19-01-2019 18:43:25

Error Line No : line 54

Error Message: ArgumentException

Exception Type: System.ArgumentException

Error Location : The ADO.NET provider with invariant name 'DBConnectionString.Data.SqlClient' is either not registered in the machine or application config file, or could not be loaded. See the inner exception for details.

 Error Page Url: http://localhost:2423/

User Host IP: 


--------------------------------*End*------------------------------------------



-----------Exception Details on  19-01-2019 18:44:25-----------------
-------------------------------------------------------------------------------------



Log Written Date: 19-01-2019 18:44:25

Error Line No : line 54

Error Message: ArgumentException

Exception Type: System.ArgumentException

Error Location : The ADO.NET provider with invariant name 'DBConnectionString.Data.SqlClient' is either not registered in the machine or application config file, or could not be loaded. See the inner exception for details.

 Error Page Url: http://localhost:2423/

User Host IP: 


--------------------------------*End*------------------------------------------



